{
  "name": "mouse-guard",
  "title": "Mouse Guard",
  "description": "Mouse Guard: Second Edition",
  "version": "0.1.0",
  "author": "Eskur",
  "authors": [
    {
      "name": "",
      "email": "",
      "url": ""
    }
  ],
  "scripts": [],
  "esmodules": ["mouse-guard.js"],
  "styles": ["mouse-guard.css"],
  "packs": [],
  "languages": [],
  "gridDistance": 1,
  "gridUnits": "",
  "minimumCoreVersion": "0.5.5",
  "compatibleCoreVersion": "0.5.5",
  "url": "",
  "manifest": "",
  "download": "",
  "license": "",
  "readme": "",
  "bugs": "",
  "changelog": ""
}
